[Network Analyzer ( 478: cac)] ------------------------------------------------------------------------------------------
[Network Analyzer ( 478: cac)] Load Network Traffic Analyzers:
[Network Analyzer ( 478: cac)]     Analyzer Module: WPLUS (value=)
[Network Analyzer ( 478: cac)]     Analyzer Module: WebBase (value=GetHttpProtocolAnalyzer:api_http_filter.dll)
[Network Analyzer ( 478: cac)]     + Network Analyzer: api_http_filter.dll @ GetHttpProtocolAnalyzer Loaded!
[Network Analyzer ( 478: cac)]     + Interception Auditors: WinInetWplusInterceptionAudit:api_http_filter.dll
[Network Analyzer ( 478: cac)]     Analyzer Module: QTWeb (value=)
[Network Analyzer ( 478: cac)]     Analyzer Module: local_server (value=)
[Network Analyzer ( 478: cac)] ------------------------------------------------------------------------------------------
[Network Analyzer ( 478: 9fc)] Address lookup for KiryshkinPC = 192.168.0.106
[Network Analyzer ( 478: cac)] Establish Listener @ 127.0.0.1:35122
[Network Analyzer ( 478: cac)] Address lookup for KiryshkinPC = 192.168.0.106
[Network Analyzer ( 478: cac)] Request Connection: Remote Server @ 127.0.0.1:35122   (Service=)  (Sid=  2)  PROXIED!
[Network Analyzer ( 478: cac)] Accept Connection : Service @ 127.0.0.1:35122  ,  Remote Client @ 127.0.0.1:35123
[Network Analyzer ( 478: 9fc)]   (Sid:  2) Connection Terminated (by Client)
[Network Analyzer ( 478: 9fc)]   (Sid:  3) Connection Terminated (by Client)
[Network Analyzer ( 478: cac)] Establish Listener @ 127.0.0.1:35126
[Network Analyzer ( 478: cac)] Address lookup for KiryshkinPC = 192.168.0.106
[Network Analyzer ( 478: cac)] Request Connection: Remote Server @ 127.0.0.1:35126   (Service=)  (Sid=  5)  PROXIED!
[Network Analyzer ( 478: cac)] Accept Connection : Service @ 127.0.0.1:35126  ,  Remote Client @ 127.0.0.1:35127
[Network Analyzer ( 478: 9fc)]   (Sid:  5) Connection Terminated (by Client)
[Network Analyzer ( 478: 9fc)]   (Sid:  6) Connection Terminated (by Client)
[Network Analyzer ( 478:1774)] Address lookup for KiryshkinPC = 192.168.0.106
[Network Analyzer ( 478:1774)] Request Connection: Remote Server @ 50.16.218.203:443   (Service=)  (Sid=  7)  PROXIED!
[Network Analyzer ( 478:1198)]   (Sid:  7) Negotiate Proxy -> Server SSL Handshake (ssl:TLSv1, ciphers:DES-CBC3-SHA)
[Network Analyzer ( 478:1198)]   (Sid:  7) Negotiate Client -> Proxy SSL Handshake (ssl:TLSv1, ciphers:RC4-MD5)
[Web Request      ( 478: 9fc)] "GET /users/login"   
[Network Analyzer ( 478: 9fc)]   (Sid:  7) Client -> Server : 421 bytes (SSL)(Service=HTTP)
[Network Analyzer ( 478: 9fc)]   (Sid:  7) Server -> Client : 815 bytes (SSL) (Service=HTTP)
[Network Analyzer ( 478: 9fc)]   (Sid:  7) Server -> Client : 5792 bytes (SSL) (Service=HTTP)
[Network Analyzer ( 478: 9fc)]   (Sid:  7) Server -> Client : 5750 bytes (SSL) (Service=HTTP)
[Network Analyzer ( 478: 9fc)]   (Sid:  7) Connection Terminated (by Server)
[Network Analyzer ( 478:1774)] Address lookup for KiryshkinPC = 192.168.0.106
[Network Analyzer ( 478:1774)] Request Connection: Remote Server @ 50.16.218.203:443   (Service=)  (Sid=  8)  PROXIED!
[Network Analyzer ( 478:1774)] Address lookup for KiryshkinPC = 192.168.0.106
[Network Analyzer ( 478:1774)] Request Connection: Remote Server @ 50.16.218.203:443   (Service=)  (Sid=  9)  PROXIED!
[Network Analyzer ( 478:1774)] Address lookup for KiryshkinPC = 192.168.0.106
[Network Analyzer ( 478:1774)] Request Connection: Remote Server @ 173.194.222.95:443   (Service=)  (Sid= 10)  PROXIED!
[Network Analyzer ( 478:1774)] Address lookup for KiryshkinPC = 192.168.0.106
[Network Analyzer ( 478: 2c4)]   (Sid:  8) Negotiate Proxy -> Server SSL Handshake (ssl:TLSv1, ciphers:DES-CBC3-SHA)
[Network Analyzer ( 478:1774)] Request Connection: Remote Server @ 94.31.29.154:443   (Service=)  (Sid= 11)  PROXIED!
[Network Analyzer ( 478:1774)] Address lookup for KiryshkinPC = 192.168.0.106
[Network Analyzer ( 478:3cc8)]   (Sid:  9) Negotiate Proxy -> Server SSL Handshake (ssl:TLSv1, ciphers:DES-CBC3-SHA)
[Network Analyzer ( 478:1774)] Request Connection: Remote Server @ 54.231.162.8:443   (Service=)  (Sid= 12)  PROXIED!
[Network Analyzer ( 478:1774)] Address lookup for KiryshkinPC = 192.168.0.106
[Network Analyzer ( 478: 2c4)]   (Sid:  8) Negotiate Client -> Proxy SSL Handshake (ssl:TLSv1, ciphers:RC4-MD5)
[Network Analyzer ( 478:1774)] Request Connection: Remote Server @ 54.231.162.8:443   (Service=)  (Sid= 13)  PROXIED!
[Network Analyzer ( 478:1774)] Address lookup for KiryshkinPC = 192.168.0.106
[Network Analyzer ( 478:1774)] Request Connection: Remote Server @ 54.231.162.8:443   (Service=)  (Sid= 14)  PROXIED!
[Web Request      ( 478: 9fc)] "GET /assets/application-074868db601e778fbace7d916d51e575fcb777441866c14a618883a7ce972aa5.css"   
[Network Analyzer ( 478:1774)] Address lookup for KiryshkinPC = 192.168.0.106
[Network Analyzer ( 478: 9fc)]   (Sid:  8) Client -> Server : 803 bytes (SSL)(Service=HTTP)
[Network Analyzer ( 478: 9fc)]   (Sid:  8) Server -> Client : 267 bytes (SSL) (Service=HTTP)
[Network Analyzer ( 478: 9fc)]   (Sid:  8) Server -> Client : 4344 bytes (SSL) (Service=HTTP)
[Network Analyzer ( 478: 9fc)]   (Sid:  8) Server -> Client : 8192 bytes (SSL) (Service=HTTP)
[Network Analyzer ( 478: 9fc)]   (Sid:  8) Server -> Client : 4344 bytes (SSL) (Service=HTTP)
[Network Analyzer ( 478: 9fc)]   (Sid:  8) Server -> Client : 13032 bytes (SSL) (Service=HTTP)
[Network Analyzer ( 478: 9fc)]   (Sid:  8) Server -> Client : 16384 bytes (SSL) (Service=HTTP)
[Network Analyzer ( 478: 9fc)]   (Sid:  8) Server -> Client : 16384 bytes (SSL) (Service=HTTP)
[Network Analyzer ( 478:1774)] Request Connection: Remote Server @ 54.231.162.8:443   (Service=)  (Sid= 15)  PROXIED!
[Network Analyzer ( 478: 9fc)]   (Sid:  8) Server -> Client : 16384 bytes (SSL) (Service=HTTP)
[Network Analyzer ( 478: 9fc)]   (Sid:  8) Server -> Client : 16384 bytes (SSL) (Service=HTTP)
[Network Analyzer ( 478: 9fc)]   (Sid:  8) Server -> Client : 16384 bytes (SSL) (Service=HTTP)
[Network Analyzer ( 478:1774)] Address lookup for KiryshkinPC = 192.168.0.106
[Network Analyzer ( 478: 9fc)]   (Sid:  8) Server -> Client : 16384 bytes (SSL) (Service=HTTP)
[Network Analyzer ( 478: 9fc)]   (Sid:  8) Server -> Client : 16384 bytes (SSL) (Service=HTTP)
[Network Analyzer ( 478: 9fc)]   (Sid:  8) Server -> Client : 16384 bytes (SSL) (Service=HTTP)
[Network Analyzer ( 478: 9fc)]   (Sid:  8) Server -> Client : 16384 bytes (SSL) (Service=HTTP)
[Network Analyzer ( 478:1774)] Request Connection: Remote Server @ 54.231.162.8:443   (Service=)  (Sid= 16)  PROXIED!
[Network Analyzer ( 478: 9fc)]   (Sid:  8) Server -> Client : 16384 bytes (SSL) (Service=HTTP)
[Network Analyzer ( 478:1774)] Address lookup for KiryshkinPC = 192.168.0.106
[Network Analyzer ( 478:1774)] Request Connection: Remote Server @ 54.231.162.8:443   (Service=)  (Sid= 17)  PROXIED!
[Network Analyzer ( 478: 9fc)]   (Sid:  8) Server -> Client : 16384 bytes (SSL) (Service=HTTP)
[Network Analyzer ( 478: 9fc)]   (Sid:  8) Server -> Client : 16384 bytes (SSL) (Service=HTTP)
[Network Analyzer ( 478: 9fc)]   (Sid:  8) Server -> Client : 4672 bytes (SSL) (Service=HTTP)
[Network Analyzer ( 478:3cc8)]   (Sid:  9) Negotiate Client -> Proxy SSL Handshake (ssl:TLSv1, ciphers:RC4-MD5)
[Web Request      ( 478: 9fc)] "GET /assets/application-b863c535cd822deaedb4cc58efeeb56e783ccfe2ad8d3dfe3b40e352fd8285c0.js"   
[Network Analyzer ( 478: 9fc)]   (Sid:  9) Client -> Server : 787 bytes (SSL)(Service=HTTP)
[Network Analyzer ( 478: 9fc)]   (Sid:  9) Server -> Client : 1729 bytes (SSL) (Service=HTTP)
[Network Analyzer ( 478: 9fc)]   (Sid:  9) Server -> Client : 4344 bytes (SSL) (Service=HTTP)
[Network Analyzer ( 478: 9fc)]   (Sid:  9) Server -> Client : 6744 bytes (SSL) (Service=HTTP)
[Network Analyzer ( 478: 9fc)]   (Sid:  9) Server -> Client : 14480 bytes (SSL) (Service=HTTP)
[Network Analyzer ( 478:13d0)]   (Sid: 17) Negotiate Proxy -> Server SSL Handshake (ssl:TLSv1, ciphers:DES-CBC3-SHA)
[Network Analyzer ( 478: 470)]   (Sid: 10) Negotiate Proxy -> Server SSL Handshake (ssl:TLSv1, ciphers:DES-CBC3-SHA)
[Network Analyzer ( 478: 9fc)]   (Sid:  9) Server -> Client : 16384 bytes (SSL) (Service=HTTP)
[Network Analyzer ( 478: 73c)]   (Sid: 11) Negotiate Proxy -> Server SSL Handshake (ssl:TLSv1, ciphers:EDH-RSA-DES-CBC3-SHA)
[Network Analyzer ( 478: 9fc)]   (Sid:  9) Server -> Client : 16384 bytes (SSL) (Service=HTTP)
[Network Analyzer ( 478: 9fc)]   (Sid:  9) Server -> Client : 16384 bytes (SSL) (Service=HTTP)
[Network Analyzer ( 478: 9fc)]   (Sid:  9) Server -> Client : 16384 bytes (SSL) (Service=HTTP)
[Network Analyzer ( 478: 9fc)]   (Sid:  9) Server -> Client : 16384 bytes (SSL) (Service=HTTP)
[Network Analyzer ( 478: 9fc)]   (Sid:  9) Server -> Client : 16384 bytes (SSL) (Service=HTTP)
[Network Analyzer ( 478: 9fc)]   (Sid:  9) Server -> Client : 16384 bytes (SSL) (Service=HTTP)
[Network Analyzer ( 478: 9fc)]   (Sid:  9) Server -> Client : 16384 bytes (SSL) (Service=HTTP)
[Network Analyzer ( 478: 9fc)]   (Sid:  9) Server -> Client : 16384 bytes (SSL) (Service=HTTP)
[Network Analyzer ( 478: 8d4)]   (Sid: 12) Negotiate Proxy -> Server SSL Handshake (ssl:TLSv1, ciphers:DES-CBC3-SHA)
[Network Analyzer ( 478: 9fc)]   (Sid:  9) Server -> Client : 16384 bytes (SSL) (Service=HTTP)
[Network Analyzer ( 478: 9fc)]   (Sid:  9) Server -> Client : 7097 bytes (SSL) (Service=HTTP)
[Network Analyzer ( 478: 804)]   (Sid: 13) Negotiate Proxy -> Server SSL Handshake (ssl:TLSv1, ciphers:DES-CBC3-SHA)
[Network Analyzer ( 478: e38)]   (Sid: 14) Negotiate Proxy -> Server SSL Handshake (ssl:TLSv1, ciphers:DES-CBC3-SHA)
[Network Analyzer ( 478:1284)]   (Sid: 15) Negotiate Proxy -> Server SSL Handshake (ssl:TLSv1, ciphers:DES-CBC3-SHA)
[Network Analyzer ( 478: e80)]   (Sid: 16) Negotiate Proxy -> Server SSL Handshake (ssl:TLSv1, ciphers:DES-CBC3-SHA)
[Net An. Error    ( 478:13d0)]   (Sid: 17) Negotiate Client -> Proxy SSL Handshake Failed!!!
[Network Analyzer ( 478:1774)] Address lookup for KiryshkinPC = 192.168.0.106
[Network Analyzer ( 478:1774)] Request Connection: Remote Server @ 54.231.162.8:443   (Service=)  (Sid= 18)  PROXIED!
[Network Analyzer ( 478: 9fc)]   (Sid: 17) Connection Terminated (by Client)
[Net An. Error    ( 478: e80)]   (Sid: 16) Negotiate Client -> Proxy SSL Handshake Failed!!!
[Network Analyzer ( 478:1774)] Address lookup for KiryshkinPC = 192.168.0.106
[Network Analyzer ( 478: 9fc)]   (Sid: 16) Connection Terminated (by Client)
[Network Analyzer ( 478:1774)] Request Connection: Remote Server @ 54.231.162.8:443   (Service=)  (Sid= 19)  PROXIED!
[Network Analyzer ( 478:15fc)]   (Sid: 18) Negotiate Proxy -> Server SSL Handshake (ssl:TLSv1, ciphers:DES-CBC3-SHA)
[Net An. Error    ( 478:15fc)]   (Sid: 18) Negotiate Client -> Proxy SSL Handshake Failed!!!
[Net An. Error    ( 478:1284)]   (Sid: 15) Negotiate Client -> Proxy SSL Handshake Failed!!!
[Net An. Error    ( 478: e38)]   (Sid: 14) Negotiate Client -> Proxy SSL Handshake Failed!!!
[Network Analyzer ( 478:1774)] Address lookup for KiryshkinPC = 192.168.0.106
[Network Analyzer ( 478:1774)] Request Connection: Remote Server @ 54.231.162.8:443   (Service=)  (Sid= 20)  PROXIED!
[Net An. Error    ( 478: 470)]   (Sid: 10) Negotiate Client -> Proxy SSL Handshake Failed!!!
[Net An. Error    ( 478: 804)]   (Sid: 13) Negotiate Client -> Proxy SSL Handshake Failed!!!
[Network Analyzer ( 478:16b8)]   (Sid: 20) Negotiate Proxy -> Server SSL Handshake (ssl:TLSv1, ciphers:DES-CBC3-SHA)
[Network Analyzer ( 478: 9fc)]   (Sid: 15) Connection Terminated (by Client)
[Network Analyzer ( 478: 9fc)]   (Sid: 18) Connection Terminated (by Client)
[Network Analyzer ( 478: 9fc)]   (Sid: 14) Connection Terminated (by Client)
[Network Analyzer ( 478: 9fc)]   (Sid: 10) Connection Terminated (by Client)
[Network Analyzer ( 478: 9fc)]   (Sid: 13) Connection Terminated (by Client)
[Net An. Error    ( 478: 8d4)]   (Sid: 12) Negotiate Client -> Proxy SSL Handshake Failed!!!
[Net An. Error    ( 478:16b8)]   (Sid: 20) Negotiate Client -> Proxy SSL Handshake Failed!!!
[Net An. Error    ( 478: 73c)]   (Sid: 11) Negotiate Client -> Proxy SSL Handshake Failed!!!
[Network Analyzer ( 478:1888)]   (Sid: 19) Negotiate Proxy -> Server SSL Handshake (ssl:TLSv1, ciphers:DES-CBC3-SHA)
[Network Analyzer ( 478: 9fc)]   (Sid: 11) Connection Terminated (by Client)
[Network Analyzer ( 478: 9fc)]   (Sid: 12) Connection Terminated (by Client)
[Network Analyzer ( 478: 9fc)]   (Sid: 20) Connection Terminated (by Client)
[Network Analyzer ( 478:1774)] Address lookup for KiryshkinPC = 192.168.0.106
[Network Analyzer ( 478:1774)] Request Connection: Remote Server @ 54.231.162.8:443   (Service=)  (Sid= 21)  PROXIED!
[Network Analyzer ( 478:1774)] Address lookup for KiryshkinPC = 192.168.0.106
[Network Analyzer ( 478:1774)] Request Connection: Remote Server @ 216.58.209.200:443   (Service=)  (Sid= 22)  PROXIED!
[Network Analyzer ( 478:1774)] Address lookup for KiryshkinPC = 192.168.0.106
[Network Analyzer ( 478:1774)] Request Connection: Remote Server @ 54.231.162.8:443   (Service=)  (Sid= 23)  PROXIED!
[Network Analyzer ( 478:1774)] Address lookup for KiryshkinPC = 192.168.0.106
[Network Analyzer ( 478:1774)] Request Connection: Remote Server @ 54.231.162.8:443   (Service=)  (Sid= 24)  PROXIED!
[Network Analyzer ( 478:1774)] Address lookup for KiryshkinPC = 192.168.0.106
[Network Analyzer ( 478:1774)] Request Connection: Remote Server @ 54.231.162.8:443   (Service=)  (Sid= 25)  PROXIED!
[Network Analyzer ( 478:1774)] Address lookup for KiryshkinPC = 192.168.0.106
[Network Analyzer ( 478:1774)] Request Connection: Remote Server @ 54.231.162.8:443   (Service=)  (Sid= 26)  PROXIED!
[Network Analyzer ( 478: 9fc)]   (Sid: 21) Connection Terminated (by Server)
[Net An. Error    ( 478:1888)]   (Sid: 19) Negotiate Client -> Proxy SSL Handshake Failed!!!
[Network Analyzer ( 478:1774)] Address lookup for KiryshkinPC = 192.168.0.106
[Network Analyzer ( 478: 9fc)]   (Sid: 19) Connection Terminated (by Client)
[Network Analyzer ( 478:1774)] Request Connection: Remote Server @ 54.231.162.8:443   (Service=)  (Sid= 27)  PROXIED!
[Network Analyzer ( 478: 93c)]   (Sid: 26) Negotiate Proxy -> Server SSL Handshake (ssl:TLSv1, ciphers:DES-CBC3-SHA)
[Net An. Error    ( 478: 93c)]   (Sid: 26) Negotiate Client -> Proxy SSL Handshake Failed!!!
[Network Analyzer ( 478:1510)]   (Sid: 25) Negotiate Proxy -> Server SSL Handshake (ssl:TLSv1, ciphers:DES-CBC3-SHA)
[Net An. Error    ( 478:1510)]   (Sid: 25) Negotiate Client -> Proxy SSL Handshake Failed!!!
[Network Analyzer ( 478:11ac)]   (Sid: 22) Negotiate Proxy -> Server SSL Handshake (ssl:TLSv1, ciphers:DES-CBC3-SHA)
[Net An. Error    ( 478:11ac)]   (Sid: 22) Negotiate Client -> Proxy SSL Handshake Failed!!!
[Network Analyzer ( 478: 1fc)]   (Sid: 23) Negotiate Proxy -> Server SSL Handshake (ssl:TLSv1, ciphers:DES-CBC3-SHA)
[Net An. Error    ( 478: 1fc)]   (Sid: 23) Negotiate Client -> Proxy SSL Handshake Failed!!!
[Network Analyzer ( 478:27c0)]   (Sid: 24) Negotiate Proxy -> Server SSL Handshake (ssl:TLSv1, ciphers:DES-CBC3-SHA)
[Net An. Error    ( 478:27c0)]   (Sid: 24) Negotiate Client -> Proxy SSL Handshake Failed!!!
[Network Analyzer ( 478: 9fc)]   (Sid: 22) Connection Terminated (by Client)
[Network Analyzer ( 478: 9fc)]   (Sid: 23) Connection Terminated (by Client)
[Network Analyzer ( 478: 9fc)]   (Sid: 25) Connection Terminated (by Client)
[Network Analyzer ( 478: 9fc)]   (Sid: 26) Connection Terminated (by Client)
[Network Analyzer ( 478: 9fc)]   (Sid: 24) Connection Terminated (by Client)
[Network Analyzer ( 478: dc4)]   (Sid: 27) Negotiate Proxy -> Server SSL Handshake (ssl:TLSv1, ciphers:DES-CBC3-SHA)
[Net An. Error    ( 478: dc4)]   (Sid: 27) Negotiate Client -> Proxy SSL Handshake Failed!!!
[Network Analyzer ( 478:1774)] Address lookup for KiryshkinPC = 192.168.0.106
[Network Analyzer ( 478:1774)] Request Connection: Remote Server @ 54.231.162.8:443   (Service=)  (Sid= 28)  PROXIED!
[Network Analyzer ( 478: 9fc)]   (Sid: 27) Connection Terminated (by Client)
[Network Analyzer ( 478: f18)]   (Sid: 28) Negotiate Proxy -> Server SSL Handshake (ssl:TLSv1, ciphers:DES-CBC3-SHA)
[Net An. Error    ( 478: f18)]   (Sid: 28) Negotiate Client -> Proxy SSL Handshake Failed!!!
[Network Analyzer ( 478: 9fc)]   (Sid: 28) Connection Terminated (by Client)
[Network Analyzer ( 478:1774)] Address lookup for KiryshkinPC = 192.168.0.106
[Network Analyzer ( 478:1774)] Request Connection: Remote Server @ 54.231.162.8:443   (Service=)  (Sid= 29)  PROXIED!
[Network Analyzer ( 478:12bc)]   (Sid: 29) Negotiate Proxy -> Server SSL Handshake (ssl:TLSv1, ciphers:DES-CBC3-SHA)
[Network Analyzer ( 478: 9fc)]   (Sid:  8) Connection Terminated (by Server)
[Net An. Error    ( 478:12bc)]   (Sid: 29) Negotiate Client -> Proxy SSL Handshake Failed!!!
[Network Analyzer ( 478: 9fc)]   (Sid: 29) Connection Terminated (by Client)
[Network Analyzer ( 478: 9fc)]   (Sid:  9) Connection Terminated (by Server)
[Network Analyzer ( 478:1774)] Address lookup for KiryshkinPC = 192.168.0.106
[Network Analyzer ( 478:1774)] Request Connection: Remote Server @ 50.16.218.203:443   (Service=)  (Sid= 30)  PROXIED!
[Network Analyzer ( 478:1774)] Address lookup for KiryshkinPC = 192.168.0.106
[Network Analyzer ( 478:1774)] Request Connection: Remote Server @ 50.16.218.203:443   (Service=)  (Sid= 31)  PROXIED!
[Network Analyzer ( 478:3108)]   (Sid: 30) Negotiate Proxy -> Server SSL Handshake (ssl:TLSv1, ciphers:DES-CBC3-SHA)
[Network Analyzer ( 478:3108)]   (Sid: 30) Negotiate Client -> Proxy SSL Handshake (ssl:TLSv1, ciphers:RC4-MD5)
[Web Request      ( 478: 9fc)] "POST /users/login"   
[Network Analyzer ( 478: 9fc)]   (Sid: 30) Client -> Server : 1095 bytes (SSL)(Service=HTTP)
[Network Analyzer ( 478:1d98)]   (Sid: 31) Negotiate Proxy -> Server SSL Handshake (ssl:TLSv1, ciphers:DES-CBC3-SHA)
[Network Analyzer ( 478:1d98)]   (Sid: 31) Negotiate Client -> Proxy SSL Handshake (ssl:TLSv1, ciphers:RC4-MD5)
[Network Analyzer ( 478: 9fc)]   (Sid: 30) Server -> Client : 872 bytes (SSL) (Service=HTTP)
[Network Analyzer ( 478: 9fc)]   (Sid: 30) Server -> Client : 89 bytes (SSL) (Service=HTTP)
[Web Request      ( 478: 9fc)] "POST /users/login"   
[Network Analyzer ( 478: 9fc)]   (Sid: 31) Client -> Server : 1192 bytes (SSL)(Service=HTTP)
[Network Analyzer ( 478: 9fc)]   (Sid: 30) Connection Terminated (by Server)
[Network Analyzer ( 478: 9fc)]   (Sid: 31) Connection Terminated (by Client)
[Network Analyzer ( 478:1774)] Address lookup for KiryshkinPC = 192.168.0.106
[Network Analyzer ( 478:1774)] Request Connection: Remote Server @ 50.16.218.203:443   (Service=)  (Sid= 32)  PROXIED!
[Network Analyzer ( 478:4704)]   (Sid: 32) Negotiate Proxy -> Server SSL Handshake (ssl:TLSv1, ciphers:DES-CBC3-SHA)
[Network Analyzer ( 478:4704)]   (Sid: 32) Negotiate Client -> Proxy SSL Handshake (ssl:TLSv1, ciphers:RC4-MD5)
[Web Request      ( 478: 9fc)] "GET /"   
[Network Analyzer ( 478: 9fc)]   (Sid: 32) Client -> Server : 811 bytes (SSL)(Service=HTTP)
[Network Analyzer ( 478: 9fc)]   (Sid: 32) Server -> Client : 2427 bytes (SSL) (Service=HTTP)
[Network Analyzer ( 478: 9fc)]   (Sid: 32) Server -> Client : 8688 bytes (SSL) (Service=HTTP)
[Network Analyzer ( 478: 9fc)]   (Sid: 32) Server -> Client : 2896 bytes (SSL) (Service=HTTP)
[Network Analyzer ( 478: 9fc)]   (Sid: 32) Server -> Client : 4344 bytes (SSL) (Service=HTTP)
[Network Analyzer ( 478: 9fc)]   (Sid: 32) Server -> Client : 8688 bytes (SSL) (Service=HTTP)
[Network Analyzer ( 478:1774)] Address lookup for KiryshkinPC = 192.168.0.106
[Network Analyzer ( 478: 9fc)]   (Sid: 32) Server -> Client : 10136 bytes (SSL) (Service=HTTP)
[Network Analyzer ( 478: 9fc)]   (Sid: 32) Server -> Client : 4344 bytes (SSL) (Service=HTTP)
[Network Analyzer ( 478: 9fc)]   (Sid: 32) Server -> Client : 4805 bytes (SSL) (Service=HTTP)
[Network Analyzer ( 478: 9fc)]   (Sid: 32) Connection Terminated (by Server)
[Network Analyzer ( 478:1774)] Request Connection: Remote Server @ 173.194.222.95:443   (Service=)  (Sid= 33)  PROXIED!
[Network Analyzer ( 478:1774)] Address lookup for KiryshkinPC = 192.168.0.106
[Network Analyzer ( 478:1774)] Request Connection: Remote Server @ 94.31.29.154:443   (Service=)  (Sid= 34)  PROXIED!
[Network Analyzer ( 478:1774)] Address lookup for KiryshkinPC = 192.168.0.106
[Network Analyzer ( 478:1774)] Request Connection: Remote Server @ 50.16.218.203:443   (Service=)  (Sid= 35)  PROXIED!
[Network Analyzer ( 478:1774)] Address lookup for KiryshkinPC = 192.168.0.106
[Network Analyzer ( 478:1774)] Request Connection: Remote Server @ 54.231.162.8:443   (Service=)  (Sid= 36)  PROXIED!
[Network Analyzer ( 478:1774)] Address lookup for KiryshkinPC = 192.168.0.106
[Network Analyzer ( 478:1774)] Request Connection: Remote Server @ 54.231.162.8:443   (Service=)  (Sid= 37)  PROXIED!
[Network Analyzer ( 478:1774)] Address lookup for KiryshkinPC = 192.168.0.106
[Network Analyzer ( 478:1774)] Request Connection: Remote Server @ 54.231.162.8:443   (Service=)  (Sid= 38)  PROXIED!
[Network Analyzer ( 478:1774)] Address lookup for KiryshkinPC = 192.168.0.106
[Network Analyzer ( 478:1774)] Request Connection: Remote Server @ 54.231.162.8:443   (Service=)  (Sid= 39)  PROXIED!
[Network Analyzer ( 478:1774)] Address lookup for KiryshkinPC = 192.168.0.106
[Network Analyzer ( 478:1774)] Request Connection: Remote Server @ 54.231.162.8:443   (Service=)  (Sid= 40)  PROXIED!
[Network Analyzer ( 478:1774)] Address lookup for KiryshkinPC = 192.168.0.106
[Network Analyzer ( 478:1774)] Request Connection: Remote Server @ 54.231.162.8:443   (Service=)  (Sid= 41)  PROXIED!
[Network Analyzer ( 478:24d8)]   (Sid: 33) Negotiate Proxy -> Server SSL Handshake (ssl:TLSv1, ciphers:DES-CBC3-SHA)
[Net An. Error    ( 478:24d8)]   (Sid: 33) Negotiate Client -> Proxy SSL Handshake Failed!!!
[Network Analyzer ( 478:4338)]   (Sid: 41) Negotiate Proxy -> Server SSL Handshake (ssl:TLSv1, ciphers:DES-CBC3-SHA)
[Net An. Error    ( 478:4338)]   (Sid: 41) Negotiate Client -> Proxy SSL Handshake Failed!!!
[Network Analyzer ( 478:27a4)]   (Sid: 34) Negotiate Proxy -> Server SSL Handshake (ssl:TLSv1, ciphers:EDH-RSA-DES-CBC3-SHA)
[Network Analyzer ( 478:16f0)]   (Sid: 35) Negotiate Proxy -> Server SSL Handshake (ssl:TLSv1, ciphers:DES-CBC3-SHA)
[Network Analyzer ( 478: 9fc)]   (Sid: 33) Connection Terminated (by Client)
[Network Analyzer ( 478: 9fc)]   (Sid: 41) Connection Terminated (by Client)
[Network Analyzer ( 478:1774)] Address lookup for KiryshkinPC = 192.168.0.106
[Network Analyzer ( 478:3a48)]   (Sid: 36) Negotiate Proxy -> Server SSL Handshake (ssl:TLSv1, ciphers:DES-CBC3-SHA)
[Network Analyzer ( 478:1774)] Request Connection: Remote Server @ 54.231.162.8:443   (Service=)  (Sid= 42)  PROXIED!
[Net An. Error    ( 478:27a4)]   (Sid: 34) Negotiate Client -> Proxy SSL Handshake Failed!!!
[Net An. Error    ( 478:3a48)]   (Sid: 36) Negotiate Client -> Proxy SSL Handshake Failed!!!
[Network Analyzer ( 478:16f0)]   (Sid: 35) Negotiate Client -> Proxy SSL Handshake (ssl:TLSv1, ciphers:RC4-MD5)
[Network Analyzer ( 478:41e8)]   (Sid: 37) Negotiate Proxy -> Server SSL Handshake (ssl:TLSv1, ciphers:DES-CBC3-SHA)
[Net An. Error    ( 478:41e8)]   (Sid: 37) Negotiate Client -> Proxy SSL Handshake Failed!!!
[Network Analyzer ( 478:151c)]   (Sid: 38) Negotiate Proxy -> Server SSL Handshake (ssl:TLSv1, ciphers:DES-CBC3-SHA)
[Net An. Error    ( 478:151c)]   (Sid: 38) Negotiate Client -> Proxy SSL Handshake Failed!!!
[Web Request      ( 478: 9fc)] "GET /assets/drop-7d18d9462ead8f5fae557f0204c03f69f42414b26a9429f71b1b3c9a015a7ce4.js"   
[Network Analyzer ( 478:1010)]   (Sid: 39) Negotiate Proxy -> Server SSL Handshake (ssl:TLSv1, ciphers:DES-CBC3-SHA)
[Network Analyzer ( 478: 9fc)]   (Sid: 35) Client -> Server : 933 bytes (SSL)(Service=HTTP)
[Net An. Error    ( 478:1010)]   (Sid: 39) Negotiate Client -> Proxy SSL Handshake Failed!!!
[Network Analyzer ( 478: 9fc)]   (Sid: 35) Server -> Client : 1251 bytes (SSL) (Service=HTTP)
[Network Analyzer ( 478:1774)] Address lookup for KiryshkinPC = 192.168.0.106
[Network Analyzer ( 478:1774)] Request Connection: Remote Server @ 216.58.209.200:443   (Service=)  (Sid= 43)  PROXIED!
[Network Analyzer ( 478:1774)] Address lookup for KiryshkinPC = 192.168.0.106
[Network Analyzer ( 478:3ab8)]   (Sid: 40) Negotiate Proxy -> Server SSL Handshake (ssl:TLSv1, ciphers:DES-CBC3-SHA)
[Network Analyzer ( 478: 9fc)]   (Sid: 34) Connection Terminated (by Client)
[Network Analyzer ( 478: 9fc)]   (Sid: 36) Connection Terminated (by Client)
[Network Analyzer ( 478: 9fc)]   (Sid: 37) Connection Terminated (by Client)
[Network Analyzer ( 478: 9fc)]   (Sid: 38) Connection Terminated (by Client)
[Network Analyzer ( 478: 9fc)]   (Sid: 39) Connection Terminated (by Client)
[Network Analyzer ( 478:1774)] Request Connection: Remote Server @ 54.231.162.8:443   (Service=)  (Sid= 44)  PROXIED!
[Network Analyzer ( 478:1774)] Address lookup for KiryshkinPC = 192.168.0.106
[Network Analyzer ( 478:1c68)]   (Sid: 42) Negotiate Proxy -> Server SSL Handshake (ssl:TLSv1, ciphers:DES-CBC3-SHA)
[Network Analyzer ( 478: 9f8)]   (Sid: 43) Negotiate Proxy -> Server SSL Handshake (ssl:TLSv1, ciphers:DES-CBC3-SHA)
[Network Analyzer ( 478:1774)] Request Connection: Remote Server @ 54.231.162.8:443   (Service=)  (Sid= 45)  PROXIED!
[Net An. Error    ( 478:1c68)]   (Sid: 42) Negotiate Client -> Proxy SSL Handshake Failed!!!
[Network Analyzer ( 478:1774)] Address lookup for KiryshkinPC = 192.168.0.106
[Network Analyzer ( 478:1774)] Request Connection: Remote Server @ 54.231.162.8:443   (Service=)  (Sid= 46)  PROXIED!
[Network Analyzer ( 478: 9fc)]   (Sid: 42) Connection Terminated (by Client)
[Network Analyzer ( 478:1774)] Address lookup for KiryshkinPC = 192.168.0.106
[Network Analyzer ( 478:1774)] Request Connection: Remote Server @ 54.231.162.8:443   (Service=)  (Sid= 47)  PROXIED!
[Network Analyzer ( 478:1774)] Address lookup for KiryshkinPC = 192.168.0.106
[Network Analyzer ( 478:1774)] Request Connection: Remote Server @ 54.231.168.190:443   (Service=)  (Sid= 48)  PROXIED!
[Network Analyzer ( 478:1774)] Address lookup for KiryshkinPC = 192.168.0.106
[Network Analyzer ( 478:29f4)]   (Sid: 46) Negotiate Proxy -> Server SSL Handshake (ssl:TLSv1, ciphers:DES-CBC3-SHA)
[Network Analyzer ( 478:1774)] Request Connection: Remote Server @ 54.231.168.190:443   (Service=)  (Sid= 49)  PROXIED!
[Net An. Error    ( 478:29f4)]   (Sid: 46) Negotiate Client -> Proxy SSL Handshake Failed!!!
[Network Analyzer ( 478:1774)] Address lookup for KiryshkinPC = 192.168.0.106
[Network Analyzer ( 478:1774)] Request Connection: Remote Server @ 54.231.168.190:443   (Service=)  (Sid= 50)  PROXIED!
[Network Analyzer ( 478: 9fc)]   (Sid: 46) Connection Terminated (by Client)
[Network Analyzer ( 478:1774)] Address lookup for KiryshkinPC = 192.168.0.106
[Network Analyzer ( 478:1774)] Request Connection: Remote Server @ 54.231.168.190:443   (Service=)  (Sid= 51)  PROXIED!
[Net An. Error    ( 478:3ab8)]   (Sid: 40) Negotiate Client -> Proxy SSL Handshake Failed!!!
[Net An. Error    ( 478: 9f8)]   (Sid: 43) Negotiate Client -> Proxy SSL Handshake Failed!!!
[Network Analyzer ( 478:1774)] Address lookup for KiryshkinPC = 192.168.0.106
[Network Analyzer ( 478: 9fc)]   (Sid: 40) Connection Terminated (by Client)
[Network Analyzer ( 478: 9fc)]   (Sid: 43) Connection Terminated (by Client)
[Network Analyzer ( 478:1774)] Request Connection: Remote Server @ 54.231.162.8:443   (Service=)  (Sid= 52)  PROXIED!
[Network Analyzer ( 478:1774)] Address lookup for KiryshkinPC = 192.168.0.106
[Network Analyzer ( 478:33c8)]   (Sid: 50) Negotiate Proxy -> Server SSL Handshake (ssl:TLSv1, ciphers:DES-CBC3-SHA)
[Network Analyzer ( 478:1774)] Request Connection: Remote Server @ 54.231.162.8:443   (Service=)  (Sid= 53)  PROXIED!
[Network Analyzer ( 478:1774)] Address lookup for KiryshkinPC = 192.168.0.106
[Network Analyzer ( 478:352c)]   (Sid: 51) Negotiate Proxy -> Server SSL Handshake (ssl:TLSv1, ciphers:DES-CBC3-SHA)
[Network Analyzer ( 478:1774)] Request Connection: Remote Server @ 54.231.162.8:443   (Service=)  (Sid= 54)  PROXIED!
[Net An. Error    ( 478:33c8)]   (Sid: 50) Negotiate Client -> Proxy SSL Handshake Failed!!!
[Net An. Error    ( 478:352c)]   (Sid: 51) Negotiate Client -> Proxy SSL Handshake Failed!!!
[Network Analyzer ( 478:3904)]   (Sid: 49) Negotiate Proxy -> Server SSL Handshake (ssl:TLSv1, ciphers:DES-CBC3-SHA)
[Net An. Error    ( 478:3904)]   (Sid: 49) Negotiate Client -> Proxy SSL Handshake Failed!!!
[Network Analyzer ( 478: 9fc)]   (Sid: 50) Connection Terminated (by Client)
[Network Analyzer ( 478: 9fc)]   (Sid: 51) Connection Terminated (by Client)
[Network Analyzer ( 478: 9fc)]   (Sid: 49) Connection Terminated (by Client)
[Network Analyzer ( 478: f74)]   (Sid: 44) Negotiate Proxy -> Server SSL Handshake (ssl:TLSv1, ciphers:DES-CBC3-SHA)
[Net An. Error    ( 478: f74)]   (Sid: 44) Negotiate Client -> Proxy SSL Handshake Failed!!!
[Network Analyzer ( 478:3ba0)]   (Sid: 45) Negotiate Proxy -> Server SSL Handshake (ssl:TLSv1, ciphers:DES-CBC3-SHA)
[Network Analyzer ( 478:2c90)]   (Sid: 47) Negotiate Proxy -> Server SSL Handshake (ssl:TLSv1, ciphers:DES-CBC3-SHA)
[Network Analyzer ( 478: 9fc)]   (Sid: 44) Connection Terminated (by Client)
[Network Analyzer ( 478:1774)] Address lookup for KiryshkinPC = 192.168.0.106
[Network Analyzer ( 478:38b4)]   (Sid: 53) Negotiate Proxy -> Server SSL Handshake (ssl:TLSv1, ciphers:DES-CBC3-SHA)
[Network Analyzer ( 478:1774)] Request Connection: Remote Server @ 54.231.162.8:443   (Service=)  (Sid= 55)  PROXIED!
[Net An. Error    ( 478:38b4)]   (Sid: 53) Negotiate Client -> Proxy SSL Handshake Failed!!!
[Net An. Error    ( 478:3ba0)]   (Sid: 45) Negotiate Client -> Proxy SSL Handshake Failed!!!
[Network Analyzer ( 478:1774)] Address lookup for KiryshkinPC = 192.168.0.106
[Network Analyzer ( 478:1774)] Request Connection: Remote Server @ 54.231.162.8:443   (Service=)  (Sid= 56)  PROXIED!
[Net An. Error    ( 478:2c90)]   (Sid: 47) Negotiate Client -> Proxy SSL Handshake Failed!!!
[Network Analyzer ( 478:3e38)]   (Sid: 54) Negotiate Proxy -> Server SSL Handshake (ssl:TLSv1, ciphers:DES-CBC3-SHA)
[Net An. Error    ( 478:3e38)]   (Sid: 54) Negotiate Client -> Proxy SSL Handshake Failed!!!
[Network Analyzer ( 478: 9fc)]   (Sid: 45) Connection Terminated (by Client)
[Network Analyzer ( 478: 9fc)]   (Sid: 53) Connection Terminated (by Client)
[Network Analyzer ( 478: 9fc)]   (Sid: 47) Connection Terminated (by Client)
[Network Analyzer ( 478: 9fc)]   (Sid: 54) Connection Terminated (by Client)
[Network Analyzer ( 478:1774)] Address lookup for KiryshkinPC = 192.168.0.106
[Network Analyzer ( 478:3c34)]   (Sid: 48) Negotiate Proxy -> Server SSL Handshake (ssl:TLSv1, ciphers:DES-CBC3-SHA)
[Network Analyzer ( 478:1774)] Request Connection: Remote Server @ 54.231.162.8:443   (Service=)  (Sid= 57)  PROXIED!
[Net An. Error    ( 478:3c34)]   (Sid: 48) Negotiate Client -> Proxy SSL Handshake Failed!!!
[Network Analyzer ( 478:427c)]   (Sid: 52) Negotiate Proxy -> Server SSL Handshake (ssl:TLSv1, ciphers:DES-CBC3-SHA)
[Net An. Error    ( 478:427c)]   (Sid: 52) Negotiate Client -> Proxy SSL Handshake Failed!!!
[Network Analyzer ( 478:3930)]   (Sid: 55) Negotiate Proxy -> Server SSL Handshake (ssl:TLSv1, ciphers:DES-CBC3-SHA)
[Net An. Error    ( 478:3930)]   (Sid: 55) Negotiate Client -> Proxy SSL Handshake Failed!!!
[Network Analyzer ( 478:4218)]   (Sid: 56) Negotiate Proxy -> Server SSL Handshake (ssl:TLSv1, ciphers:DES-CBC3-SHA)
[Net An. Error    ( 478:4218)]   (Sid: 56) Negotiate Client -> Proxy SSL Handshake Failed!!!
[Network Analyzer ( 478:1774)] Address lookup for KiryshkinPC = 192.168.0.106
[Network Analyzer ( 478:1774)] Request Connection: Remote Server @ 54.231.162.8:443   (Service=)  (Sid= 58)  PROXIED!
[Network Analyzer ( 478:2224)]   (Sid: 57) Negotiate Proxy -> Server SSL Handshake (ssl:TLSv1, ciphers:DES-CBC3-SHA)
[Net An. Error    ( 478:2224)]   (Sid: 57) Negotiate Client -> Proxy SSL Handshake Failed!!!
[Network Analyzer ( 478: 9fc)]   (Sid: 48) Connection Terminated (by Client)
[Network Analyzer ( 478: 9fc)]   (Sid: 52) Connection Terminated (by Client)
[Network Analyzer ( 478: 9fc)]   (Sid: 55) Connection Terminated (by Client)
[Network Analyzer ( 478: 9fc)]   (Sid: 56) Connection Terminated (by Client)
[Network Analyzer ( 478: 9fc)]   (Sid: 57) Connection Terminated (by Client)
[Network Analyzer ( 478:1130)]   (Sid: 58) Negotiate Proxy -> Server SSL Handshake (ssl:TLSv1, ciphers:DES-CBC3-SHA)
[Net An. Error    ( 478:1130)]   (Sid: 58) Negotiate Client -> Proxy SSL Handshake Failed!!!
[Web Request      ( 478: 9fc)] "GET /favicon.ico"   
[Network Analyzer ( 478: 9fc)]   (Sid: 35) Client -> Server : 860 bytes (SSL)(Service=HTTP)
[Network Analyzer ( 478: 9fc)]   (Sid: 35) Server -> Client : 5792 bytes (SSL) (Service=HTTP)
[Network Analyzer ( 478: 9fc)]   (Sid: 35) Server -> Client : 13032 bytes (SSL) (Service=HTTP)
[Network Analyzer ( 478: 9fc)]   (Sid: 35) Server -> Client : 8688 bytes (SSL) (Service=HTTP)
[Network Analyzer ( 478: 9fc)]   (Sid: 35) Server -> Client : 5792 bytes (SSL) (Service=HTTP)
[Network Analyzer ( 478: 9fc)]   (Sid: 35) Server -> Client : 5056 bytes (SSL) (Service=HTTP)
[Network Analyzer ( 478: 9fc)]   (Sid: 58) Connection Terminated (by Client)
[Network Analyzer ( 478:1774)] Address lookup for KiryshkinPC = 192.168.0.106
[Network Analyzer ( 478:1774)] Request Connection: Remote Server @ 54.231.162.8:443   (Service=)  (Sid= 59)  PROXIED!
[Network Analyzer ( 478:10e8)]   (Sid: 59) Negotiate Proxy -> Server SSL Handshake (ssl:TLSv1, ciphers:DES-CBC3-SHA)
[Net An. Error    ( 478:10e8)]   (Sid: 59) Negotiate Client -> Proxy SSL Handshake Failed!!!
[Network Analyzer ( 478: 9fc)]   (Sid: 59) Connection Terminated (by Client)
[Network Analyzer ( 478:1774)] Address lookup for KiryshkinPC = 192.168.0.106
[Network Analyzer ( 478:1774)] Request Connection: Remote Server @ 54.231.162.8:443   (Service=)  (Sid= 60)  PROXIED!
[Network Analyzer ( 478:23a4)]   (Sid: 60) Negotiate Proxy -> Server SSL Handshake (ssl:TLSv1, ciphers:DES-CBC3-SHA)
[Net An. Error    ( 478:23a4)]   (Sid: 60) Negotiate Client -> Proxy SSL Handshake Failed!!!
[Network Analyzer ( 478: 9fc)]   (Sid: 60) Connection Terminated (by Client)
[Network Analyzer ( 478:1774)] Address lookup for KiryshkinPC = 192.168.0.106
[Network Analyzer ( 478:1774)] Request Connection: Remote Server @ 54.231.162.8:443   (Service=)  (Sid= 61)  PROXIED!
[Network Analyzer ( 478:11d0)]   (Sid: 61) Negotiate Proxy -> Server SSL Handshake (ssl:TLSv1, ciphers:DES-CBC3-SHA)
[Net An. Error    ( 478:11d0)]   (Sid: 61) Negotiate Client -> Proxy SSL Handshake Failed!!!
[Network Analyzer ( 478: 9fc)]   (Sid: 61) Connection Terminated (by Client)
[Network Analyzer ( 478:1774)] Address lookup for KiryshkinPC = 192.168.0.106
[Network Analyzer ( 478:1774)] Request Connection: Remote Server @ 54.231.162.8:443   (Service=)  (Sid= 62)  PROXIED!
[Network Analyzer ( 478:15e8)]   (Sid: 62) Negotiate Proxy -> Server SSL Handshake (ssl:TLSv1, ciphers:DES-CBC3-SHA)
[Net An. Error    ( 478:15e8)]   (Sid: 62) Negotiate Client -> Proxy SSL Handshake Failed!!!
[Network Analyzer ( 478: 9fc)]   (Sid: 62) Connection Terminated (by Client)
[Network Analyzer ( 478:1774)] Address lookup for KiryshkinPC = 192.168.0.106
[Network Analyzer ( 478:1774)] Request Connection: Remote Server @ 54.231.162.8:443   (Service=)  (Sid= 63)  PROXIED!
[Network Analyzer ( 478:2abc)]   (Sid: 63) Negotiate Proxy -> Server SSL Handshake (ssl:TLSv1, ciphers:DES-CBC3-SHA)
[Net An. Error    ( 478:2abc)]   (Sid: 63) Negotiate Client -> Proxy SSL Handshake Failed!!!
[Network Analyzer ( 478: 9fc)]   (Sid: 63) Connection Terminated (by Client)
[Network Analyzer ( 478:1774)] Address lookup for KiryshkinPC = 192.168.0.106
[Network Analyzer ( 478:1774)] Request Connection: Remote Server @ 54.231.162.8:443   (Service=)  (Sid= 64)  PROXIED!
[Network Analyzer ( 478:3db4)]   (Sid: 64) Negotiate Proxy -> Server SSL Handshake (ssl:TLSv1, ciphers:DES-CBC3-SHA)
[Net An. Error    ( 478:3db4)]   (Sid: 64) Negotiate Client -> Proxy SSL Handshake Failed!!!
[Network Analyzer ( 478: 9fc)]   (Sid: 64) Connection Terminated (by Client)
[Network Analyzer ( 478:1774)] Address lookup for KiryshkinPC = 192.168.0.106
[Network Analyzer ( 478:1774)] Request Connection: Remote Server @ 54.231.162.8:443   (Service=)  (Sid= 65)  PROXIED!
[Network Analyzer ( 478:33fc)]   (Sid: 65) Negotiate Proxy -> Server SSL Handshake (ssl:TLSv1, ciphers:DES-CBC3-SHA)
[Net An. Error    ( 478:33fc)]   (Sid: 65) Negotiate Client -> Proxy SSL Handshake Failed!!!
[Network Analyzer ( 478: 9fc)]   (Sid: 65) Connection Terminated (by Client)
[Network Analyzer ( 478:1774)] Address lookup for KiryshkinPC = 192.168.0.106
[Network Analyzer ( 478:1774)] Request Connection: Remote Server @ 54.231.162.8:443   (Service=)  (Sid= 66)  PROXIED!
[Network Analyzer ( 478:1178)]   (Sid: 66) Negotiate Proxy -> Server SSL Handshake (ssl:TLSv1, ciphers:DES-CBC3-SHA)
[Net An. Error    ( 478:1178)]   (Sid: 66) Negotiate Client -> Proxy SSL Handshake Failed!!!
[Network Analyzer ( 478: 9fc)]   (Sid: 66) Connection Terminated (by Client)
[Network Analyzer ( 478:1774)] Address lookup for KiryshkinPC = 192.168.0.106
[Network Analyzer ( 478:1774)] Request Connection: Remote Server @ 54.231.162.8:443   (Service=)  (Sid= 67)  PROXIED!
[Network Analyzer ( 478:2ac0)]   (Sid: 67) Negotiate Proxy -> Server SSL Handshake (ssl:TLSv1, ciphers:DES-CBC3-SHA)
[Net An. Error    ( 478:2ac0)]   (Sid: 67) Negotiate Client -> Proxy SSL Handshake Failed!!!
[Network Analyzer ( 478: 9fc)]   (Sid: 67) Connection Terminated (by Client)
[Network Analyzer ( 478:1774)] Address lookup for KiryshkinPC = 192.168.0.106
[Network Analyzer ( 478:1774)] Request Connection: Remote Server @ 54.231.162.8:443   (Service=)  (Sid= 68)  PROXIED!
[Network Analyzer ( 478: 654)]   (Sid: 68) Negotiate Proxy -> Server SSL Handshake (ssl:TLSv1, ciphers:DES-CBC3-SHA)
[Net An. Error    ( 478: 654)]   (Sid: 68) Negotiate Client -> Proxy SSL Handshake Failed!!!
[Network Analyzer ( 478: 9fc)]   (Sid: 68) Connection Terminated (by Client)
[Network Analyzer ( 478:1774)] Address lookup for KiryshkinPC = 192.168.0.106
[Network Analyzer ( 478:1774)] Request Connection: Remote Server @ 54.231.162.8:443   (Service=)  (Sid= 69)  PROXIED!
[Network Analyzer ( 478:1d30)]   (Sid: 69) Negotiate Proxy -> Server SSL Handshake (ssl:TLSv1, ciphers:DES-CBC3-SHA)
[Net An. Error    ( 478:1d30)]   (Sid: 69) Negotiate Client -> Proxy SSL Handshake Failed!!!
[Network Analyzer ( 478: 9fc)]   (Sid: 69) Connection Terminated (by Client)
[Network Analyzer ( 478:1774)] Address lookup for KiryshkinPC = 192.168.0.106
[Network Analyzer ( 478:1774)] Request Connection: Remote Server @ 54.231.162.8:443   (Service=)  (Sid= 70)  PROXIED!
[Network Analyzer ( 478:1160)]   (Sid: 70) Negotiate Proxy -> Server SSL Handshake (ssl:TLSv1, ciphers:DES-CBC3-SHA)
[Net An. Error    ( 478:1160)]   (Sid: 70) Negotiate Client -> Proxy SSL Handshake Failed!!!
[Network Analyzer ( 478: 9fc)]   (Sid: 70) Connection Terminated (by Client)
[Network Analyzer ( 478:1774)] Address lookup for KiryshkinPC = 192.168.0.106
[Network Analyzer ( 478:1774)] Request Connection: Remote Server @ 54.231.162.8:443   (Service=)  (Sid= 71)  PROXIED!
[Network Analyzer ( 478:4614)]   (Sid: 71) Negotiate Proxy -> Server SSL Handshake (ssl:TLSv1, ciphers:DES-CBC3-SHA)
[Net An. Error    ( 478:4614)]   (Sid: 71) Negotiate Client -> Proxy SSL Handshake Failed!!!
[Network Analyzer ( 478: 9fc)]   (Sid: 71) Connection Terminated (by Client)
[Network Analyzer ( 478:1774)] Address lookup for KiryshkinPC = 192.168.0.106
[Network Analyzer ( 478:1774)] Request Connection: Remote Server @ 54.231.162.8:443   (Service=)  (Sid= 72)  PROXIED!
[Network Analyzer ( 478:1aa0)]   (Sid: 72) Negotiate Proxy -> Server SSL Handshake (ssl:TLSv1, ciphers:DES-CBC3-SHA)
[Net An. Error    ( 478:1aa0)]   (Sid: 72) Negotiate Client -> Proxy SSL Handshake Failed!!!
[Network Analyzer ( 478: 9fc)]   (Sid: 72) Connection Terminated (by Client)
[Network Analyzer ( 478:1774)] Address lookup for KiryshkinPC = 192.168.0.106
[Network Analyzer ( 478:1774)] Request Connection: Remote Server @ 54.231.162.8:443   (Service=)  (Sid= 73)  PROXIED!
[Network Analyzer ( 478: d20)]   (Sid: 73) Negotiate Proxy -> Server SSL Handshake (ssl:TLSv1, ciphers:DES-CBC3-SHA)
[Net An. Error    ( 478: d20)]   (Sid: 73) Negotiate Client -> Proxy SSL Handshake Failed!!!
[Network Analyzer ( 478: 9fc)]   (Sid: 73) Connection Terminated (by Client)
[Network Analyzer ( 478:1774)] Address lookup for KiryshkinPC = 192.168.0.106
[Network Analyzer ( 478:1774)] Request Connection: Remote Server @ 54.231.162.8:443   (Service=)  (Sid= 74)  PROXIED!
[Network Analyzer ( 478:467c)]   (Sid: 74) Negotiate Proxy -> Server SSL Handshake (ssl:TLSv1, ciphers:DES-CBC3-SHA)
[Net An. Error    ( 478:467c)]   (Sid: 74) Negotiate Client -> Proxy SSL Handshake Failed!!!
[Network Analyzer ( 478: 9fc)]   (Sid: 74) Connection Terminated (by Client)
[Network Analyzer ( 478:1774)] Address lookup for KiryshkinPC = 192.168.0.106
[Network Analyzer ( 478:1774)] Request Connection: Remote Server @ 54.231.162.8:443   (Service=)  (Sid= 75)  PROXIED!
[Network Analyzer ( 478:1fc8)]   (Sid: 75) Negotiate Proxy -> Server SSL Handshake (ssl:TLSv1, ciphers:DES-CBC3-SHA)
[Net An. Error    ( 478:1fc8)]   (Sid: 75) Negotiate Client -> Proxy SSL Handshake Failed!!!
[Network Analyzer ( 478: 9fc)]   (Sid: 75) Connection Terminated (by Client)
[Network Analyzer ( 478:1774)] Address lookup for KiryshkinPC = 192.168.0.106
[Network Analyzer ( 478:1774)] Request Connection: Remote Server @ 54.231.162.8:443   (Service=)  (Sid= 76)  PROXIED!
[Network Analyzer ( 478:4694)]   (Sid: 76) Negotiate Proxy -> Server SSL Handshake (ssl:TLSv1, ciphers:DES-CBC3-SHA)
[Net An. Error    ( 478:4694)]   (Sid: 76) Negotiate Client -> Proxy SSL Handshake Failed!!!
[Network Analyzer ( 478: 9fc)]   (Sid: 76) Connection Terminated (by Client)
[Network Analyzer ( 478:1774)] Address lookup for KiryshkinPC = 192.168.0.106
[Network Analyzer ( 478:1774)] Request Connection: Remote Server @ 54.231.162.8:443   (Service=)  (Sid= 77)  PROXIED!
[Network Analyzer ( 478:1e94)]   (Sid: 77) Negotiate Proxy -> Server SSL Handshake (ssl:TLSv1, ciphers:DES-CBC3-SHA)
[Net An. Error    ( 478:1e94)]   (Sid: 77) Negotiate Client -> Proxy SSL Handshake Failed!!!
[Network Analyzer ( 478: 9fc)]   (Sid: 77) Connection Terminated (by Client)
[Network Analyzer ( 478:1774)] Address lookup for KiryshkinPC = 192.168.0.106
[Network Analyzer ( 478:1774)] Request Connection: Remote Server @ 54.231.162.8:443   (Service=)  (Sid= 78)  PROXIED!
[Network Analyzer ( 478:135c)]   (Sid: 78) Negotiate Proxy -> Server SSL Handshake (ssl:TLSv1, ciphers:DES-CBC3-SHA)
[Net An. Error    ( 478:135c)]   (Sid: 78) Negotiate Client -> Proxy SSL Handshake Failed!!!
[Network Analyzer ( 478: 9fc)]   (Sid: 78) Connection Terminated (by Client)
[Network Analyzer ( 478:1774)] Address lookup for KiryshkinPC = 192.168.0.106
[Network Analyzer ( 478:1774)] Request Connection: Remote Server @ 54.231.162.8:443   (Service=)  (Sid= 79)  PROXIED!
[Network Analyzer ( 478: 5d8)]   (Sid: 79) Negotiate Proxy -> Server SSL Handshake (ssl:TLSv1, ciphers:DES-CBC3-SHA)
[Net An. Error    ( 478: 5d8)]   (Sid: 79) Negotiate Client -> Proxy SSL Handshake Failed!!!
[Network Analyzer ( 478: 9fc)]   (Sid: 35) Connection Terminated (by Server)
[Network Analyzer ( 478: 9fc)]   (Sid: 79) Connection Terminated (by Client)
[Network Analyzer ( 478:1774)] Address lookup for KiryshkinPC = 192.168.0.106
[Network Analyzer ( 478:1774)] Request Connection: Remote Server @ 54.231.162.8:443   (Service=)  (Sid= 80)  PROXIED!
[Network Analyzer ( 478:16c0)]   (Sid: 80) Negotiate Proxy -> Server SSL Handshake (ssl:TLSv1, ciphers:DES-CBC3-SHA)
[Net An. Error    ( 478:16c0)]   (Sid: 80) Negotiate Client -> Proxy SSL Handshake Failed!!!
[Network Analyzer ( 478: 9fc)]   (Sid: 80) Connection Terminated (by Client)
